dvs internals
…
dvs_add(paths = fs::dir_ls("data/small", type = "file"), message = "add small corpus datasets")

# A tibble: 3 × 5
  path                   outcome hash                          size  stored_size
  <chr>                  <chr>   <chr>                         <dvs> <dvs_byts> 
1 data/small/small_1.csv copied  fa1151ba37b379115c51ee9d487a… 1024… 1024.0 KB  
2 data/small/small_2.csv copied  1b2bf20999cf6b72a927c6093353… 1024… 1024.0 KB  
3 data/small/small_3.csv copied  c5b8047c789b29c7747e3a9c173c… 1024… 1024.0 KB  

dvs_add(glob = "data/individual/individual_*.csv", message = "add individual datasets via glob")

# A tibble: 50 × 5
   path                              outcome hash              size  stored_size
   <chr>                             <chr>   <chr>             <dvs> <dvs_byts> 
 1 data/individual/individual_01.csv copied  7d86bd190953cf87… 3.0 … 3.0 MB     
 2 data/individual/individual_02.csv copied  bb9608913f35e9d8… 3.0 … 3.0 MB     
 3 data/individual/individual_03.csv copied  ba797648e1087943… 3.0 … 3.0 MB     
 4 data/individual/individual_04.csv copied  16e554d58a3fc781… 3.0 … 3.0 MB     
 5 data/individual/individual_05.csv copied  37dd46f7a63e1f24… 3.0 … 3.0 MB     
 6 data/individual/individual_06.csv copied  c5761b212de0471b… 3.0 … 3.0 MB     
 7 data/individual/individual_07.csv copied  c6c7cc2c2fbfb30a… 3.0 … 3.0 MB     
 8 data/individual/individual_08.csv copied  fe91d59b83308bd8… 3.0 … 3.0 MB     
 9 data/individual/individual_09.csv copied  de15adac16491cea… 3.0 … 3.0 MB     
10 data/individual/individual_10.csv copied  6244ff824e2df66e… 3.0 … 3.0 MB     
# ℹ 40 more rows
…
setwd(new_project)

fs::dir_info(".dvs", recurse = TRUE, all = TRUE, type = "file") |>
  dplyr::filter(!grepl("\\.git", path)) |>
  dplyr::select(size, path, type)

# A tibble: 55 × 3
          size path                                       type 
   <fs::bytes> <fs::path>                                 <fct>
 1         20K .dvs/.cache/dvs.db                         file 
 2         264 .dvs/data/individual/individual_01.csv.dvs file 
 3         264 .dvs/data/individual/individual_02.csv.dvs file 
 4         264 .dvs/data/individual/individual_03.csv.dvs file 
 5         264 .dvs/data/individual/individual_04.csv.dvs file 
 6         264 .dvs/data/individual/individual_05.csv.dvs file 
 7         264 .dvs/data/individual/individual_06.csv.dvs file 
 8         264 .dvs/data/individual/individual_07.csv.dvs file 
 9         264 .dvs/data/individual/individual_08.csv.dvs file 
10         264 .dvs/data/individual/individual_09.csv.dvs file 
# ℹ 45 more rows
…
fs::dir_info(storage, recurse = TRUE, all = TRUE, type = "file") |>
  dplyr::filter(!grepl("\\.git", path)) |>
  dplyr::mutate(subdir = path |> fs::path_dir() |> fs::path_rel(storage)) |>
  dplyr::reframe(n_files = dplyr::n(), size = sum(size), .by = subdir)

# A tibble: 50 × 3
   subdir     n_files        size
   <fs::path>   <int> <fs::bytes>
 1 03               1          3M
 2 05               1          3M
 3 0c               1          3M
 4 10               1          3M
 5 12               1          3M
 6 16               1          3M
 7 18               1          3M
 8 19               2          6M
 9 1b               1       1024K
10 26               1          3M
# ℹ 40 more rows
…
