Introduction to dvs: data version control system
…
False sizes unfortunately;

setwd(new_project)

fs::dir_info(
  "data",recurse = TRUE, type = "file",
)[, c("size", "path", "type")] 

# A tibble: 54 × 3
          size path                              type 
   <fs::bytes> <fs::path>                        <fct>
 1          3M data/individual/individual_01.csv file 
 2          3M data/individual/individual_02.csv file 
 3          3M data/individual/individual_03.csv file 
 4          3M data/individual/individual_04.csv file 
 5          3M data/individual/individual_05.csv file 
 6          3M data/individual/individual_06.csv file 
 7          3M data/individual/individual_07.csv file 
 8          3M data/individual/individual_08.csv file 
 9          3M data/individual/individual_09.csv file 
10          3M data/individual/individual_10.csv file 
# ℹ 44 more rows
…
# whole folder
dvs_add(paths = fs::dir_ls("data/small", type = "file"), message = "add small corpus datasets")

# A tibble: 3 × 5
  path                   outcome hash                          size  stored_size
  <chr>                  <chr>   <chr>                         <dvs> <dvs_byts> 
1 data/small/small_1.csv copied  fa1151ba37b379115c51ee9d487a… 1024… 428.2 KB   
2 data/small/small_2.csv copied  1b2bf20999cf6b72a927c6093353… 1024… 427.8 KB   
3 data/small/small_3.csv copied  c5b8047c789b29c7747e3a9c173c… 1024… 428.0 KB   

# glob
# dvs_add("data/individual", glob = "individiual_*.csv", message = "add individual datasets via glob")
dvs_add(glob = "data/individual/individual_*.csv", message = "add individual datasets via glob")

# A tibble: 50 × 5
   path                              outcome hash              size  stored_size
   <chr>                             <chr>   <chr>             <dvs> <dvs_byts> 
 1 data/individual/individual_01.csv copied  7d86bd190953cf87… 3.0 … 1.3 MB     
 2 data/individual/individual_02.csv copied  bb9608913f35e9d8… 3.0 … 1.3 MB     
 3 data/individual/individual_03.csv copied  ba797648e1087943… 3.0 … 1.3 MB     
 4 data/individual/individual_04.csv copied  16e554d58a3fc781… 3.0 … 1.3 MB     
 5 data/individual/individual_05.csv copied  37dd46f7a63e1f24… 3.0 … 1.3 MB     
 6 data/individual/individual_06.csv copied  c5761b212de0471b… 3.0 … 1.3 MB     
 7 data/individual/individual_07.csv copied  c6c7cc2c2fbfb30a… 3.0 … 1.3 MB     
 8 data/individual/individual_08.csv copied  fe91d59b83308bd8… 3.0 … 1.3 MB     
 9 data/individual/individual_09.csv copied  de15adac16491cea… 3.0 … 1.3 MB     
10 data/individual/individual_10.csv copied  6244ff824e2df66e… 3.0 … 1.3 MB     
# ℹ 40 more rows

Status

setwd(new_project)

dvs_status()

# A tibble: 54 × 8
   path              status hash    size created_by add_time compression message
   <chr>             <chr>  <chr>  <dbl> <chr>      <chr>    <chr>       <chr>  
 1 data/individual/… curre… 7d86… 3.15e6 elea       2026-04… zstd        add in…
 2 data/individual/… curre… bb96… 3.15e6 elea       2026-04… zstd        add in…
 3 data/individual/… curre… ba79… 3.15e6 elea       2026-04… zstd        add in…
 4 data/individual/… curre… 16e5… 3.15e6 elea       2026-04… zstd        add in…
 5 data/individual/… curre… 37dd… 3.15e6 elea       2026-04… zstd        add in…
 6 data/individual/… curre… c576… 3.15e6 elea       2026-04… zstd        add in…
 7 data/individual/… curre… c6c7… 3.15e6 elea       2026-04… zstd        add in…
 8 data/individual/… curre… fe91… 3.15e6 elea       2026-04… zstd        add in…
 9 data/individual/… curre… de15… 3.15e6 elea       2026-04… zstd        add in…
10 data/individual/… curre… 6244… 3.15e6 elea       2026-04… zstd        add in…
# ℹ 44 more rows
…
# A tibble: 3 × 8
  path               status hash    size created_by add_time compression message
  <chr>              <chr>  <chr>  <dbl> <chr>      <chr>    <chr>       <chr>  
1 data/individual/i… absent 8f0a… 3.15e6 elea       2026-04… zstd        add in…
2 data/individual/i… absent d088… 3.15e6 elea       2026-04… zstd        add in…
3 data/individual/i… absent 262c… 3.15e6 elea       2026-04… zstd        add in…

Let us restore them:

setwd(new_project)

dvs_get(glob = "data/individual/individual_*.csv")

# A tibble: 50 × 3
   path                              outcome    size
   <chr>                             <chr>     <int>
 1 data/individual/individual_01.csv present 3145700
 2 data/individual/individual_02.csv present 3145687
 3 data/individual/individual_03.csv present 3145698
 4 data/individual/individual_04.csv present 3145686
 5 data/individual/individual_05.csv present 3145706
 6 data/individual/individual_06.csv present 3145687
 7 data/individual/individual_07.csv present 3145686
 8 data/individual/individual_08.csv present 3145692
 9 data/individual/individual_09.csv present 3145728
10 data/individual/individual_10.csv present 3145680
# ℹ 40 more rows
…
