…
::: {.cell}

```{.r .cell-code}
setwd(here::here(new_project))

fs::dir_info(
  "data",recurse = TRUE, type = "file",
)[, c("size", "path", "type")] 
```

::: {.cell-output .cell-output-stdout}

```
# A tibble: 54 × 3
          size path                              type 
   <fs::bytes> <fs::path>                        <fct>
 1          3M data/individual/individual_01.csv file 
 2          3M data/individual/individual_02.csv file 
 3          3M data/individual/individual_03.csv file 
 4          3M data/individual/individual_04.csv file 
 5          3M data/individual/individual_05.csv file 
 6          3M data/individual/individual_06.csv file 
 7          3M data/individual/individual_07.csv file 
 8          3M data/individual/individual_08.csv file 
 9          3M data/individual/individual_09.csv file 
10          3M data/individual/individual_10.csv file 
# ℹ 44 more rows
```
…
:::

```{.r .cell-code}
# glob
# dvs_add("data/individual", glob = "individiual_*.csv", message = "add individual datasets via glob")
dvs_add(glob = "data/individual/individual_*.csv", message = "add individual datasets via glob")
```

::: {.cell-output .cell-output-stdout}

```
# A tibble: 50 × 5
   path                              outcome hash                                                                size stored_size
   <chr>                             <chr>   <chr>                                                            <bytes>     <bytes>
 1 data/individual/individual_01.csv copied  57856e362f74d4319cdb81f0454e205a91e7ad8c83e3442aee7da4c676902d53  3.0 MB      1.3 MB
 2 data/individual/individual_02.csv copied  85ee4a308973f2ef5cda8d4a1a6228a4ff69e0f72de5c2dfd1aa8f9a409e2b5c  3.0 MB      1.3 MB
 3 data/individual/individual_03.csv copied  cd648605e42fddc1c08fc761b3683021e0be3a4578b0ec9e02e84e9645db8d58  3.0 MB      1.3 MB
 4 data/individual/individual_04.csv copied  388c35ea1e0f0f55cd73c6d6e84ad7659b3954f271103b51bcc868f9f07d1aee  3.0 MB      1.3 MB
 5 data/individual/individual_05.csv copied  0dbb9776c7188194995a8ddc0dca67a9814ef7fa165cc035518386c6e51cbb92  3.0 MB      1.3 MB
 6 data/individual/individual_06.csv copied  e3d9340328668ac4a61180c62664fa53726de78410ac7b90679b9f81cee2b852  3.0 MB      1.3 MB
 7 data/individual/individual_07.csv copied  e755c66eba55a05f0cb10a6c068f29a373de0baaed2649f0b8828ff302c65d61  3.0 MB      1.3 MB
 8 data/individual/individual_08.csv copied  93cb8aaac5d09feba55d44274f96b3b67f81fd66fce959e86e6b5af80b670d61  3.0 MB      1.3 MB
 9 data/individual/individual_09.csv copied  26af472b0caf28693778231ceacf48504b4c09d2cc877dd9c4a7f1a21144d72f  3.0 MB      1.3 MB
10 data/individual/individual_10.csv copied  804e10256f674fbb79860959dc612b3f73171c96871a6707278eaea594f9d470  3.0 MB      1.3 MB
# ℹ 40 more rows
```
…
Status


::: {.cell}

```{.r .cell-code}
setwd(here::here(new_project))

dvs_status()
```

::: {.cell-output .cell-output-stdout}

```
# A tibble: 54 × 8
   path                              status  hash                                                                size created_by compression message                          add_time           
   <chr>                             <chr>   <chr>                                                            <bytes> <chr>      <chr>       <chr>                            <dttm>             
 1 data/individual/individual_01.csv current 57856e362f74d4319cdb81f0454e205a91e7ad8c83e3442aee7da4c676902d53  3.0 MB elea       zstd        add individual datasets via glob 2026-04-24 12:58:43
 2 data/individual/individual_02.csv current 85ee4a308973f2ef5cda8d4a1a6228a4ff69e0f72de5c2dfd1aa8f9a409e2b5c  3.0 MB elea       zstd        add individual datasets via glob 2026-04-24 12:58:43
 3 data/individual/individual_03.csv current cd648605e42fddc1c08fc761b3683021e0be3a4578b0ec9e02e84e9645db8d58  3.0 MB elea       zstd        add individual datasets via glob 2026-04-24 12:58:43
 4 data/individual/individual_04.csv current 388c35ea1e0f0f55cd73c6d6e84ad7659b3954f271103b51bcc868f9f07d1aee  3.0 MB elea       zstd        add individual datasets via glob 2026-04-24 12:58:43
 5 data/individual/individual_05.csv current 0dbb9776c7188194995a8ddc0dca67a9814ef7fa165cc035518386c6e51cbb92  3.0 MB elea       zstd        add individual datasets via glob 2026-04-24 12:58:43
 6 data/individual/individual_06.csv current e3d9340328668ac4a61180c62664fa53726de78410ac7b90679b9f81cee2b852  3.0 MB elea       zstd        add individual datasets via glob 2026-04-24 12:58:43
 7 data/individual/individual_07.csv current e755c66eba55a05f0cb10a6c068f29a373de0baaed2649f0b8828ff302c65d61  3.0 MB elea       zstd        add individual datasets via glob 2026-04-24 12:58:43
 8 data/individual/individual_08.csv current 93cb8aaac5d09feba55d44274f96b3b67f81fd66fce959e86e6b5af80b670d61  3.0 MB elea       zstd        add individual datasets via glob 2026-04-24 12:58:43
 9 data/individual/individual_09.csv current 26af472b0caf28693778231ceacf48504b4c09d2cc877dd9c4a7f1a21144d72f  3.0 MB elea       zstd        add individual datasets via glob 2026-04-24 12:58:43
10 data/individual/individual_10.csv current 804e10256f674fbb79860959dc612b3f73171c96871a6707278eaea594f9d470  3.0 MB elea       zstd        add individual datasets via glob 2026-04-24 12:58:43
# ℹ 44 more rows
```
…
Let us restore them:


::: {.cell}

```{.r .cell-code}
setwd(here::here(new_project))

dvs_get(glob = "data/individual/individual_*.csv")
```

::: {.cell-output .cell-output-stdout}

```
# A tibble: 50 × 3
   path                              outcome    size
   <chr>                             <chr>   <bytes>
 1 data/individual/individual_01.csv present  3.0 MB
 2 data/individual/individual_02.csv present  3.0 MB
 3 data/individual/individual_03.csv present  3.0 MB
 4 data/individual/individual_04.csv copied   3.0 MB
 5 data/individual/individual_05.csv present  3.0 MB
 6 data/individual/individual_06.csv present  3.0 MB
 7 data/individual/individual_07.csv present  3.0 MB
 8 data/individual/individual_08.csv copied   3.0 MB
 9 data/individual/individual_09.csv present  3.0 MB
10 data/individual/individual_10.csv present  3.0 MB
# ℹ 40 more rows
```
…
